<svg width="658" height="169" viewBox="0 0 658 169" fill="none" xmlns="http://www.w3.org/2000/svg">
<path fill-rule="evenodd" clip-rule="evenodd" d="M311.984 131.669H285.361C284.606 128.974 283.852 126.387 283.097 123.692C254.426 144.064 225 132.639 212.174 117.549C195.359 97.8237 195.898 61.9307 213.144 42.2058C227.587 25.8222 256.043 17.1993 282.99 36.062C283.744 33.5829 284.499 31.3193 285.253 28.7325H311.984V131.669ZM280.295 80.0389C280.295 64.5176 271.456 54.8168 257.229 54.8168C243.216 54.8168 233.192 65.5955 233.192 80.47C233.192 95.2368 242.785 105.045 257.121 104.938C271.672 104.83 280.295 95.5601 280.295 80.0389Z" fill="#38CC78"/>
<path fill-rule="evenodd" clip-rule="evenodd" d="M100.399 23.4513C92.9616 30.0263 85.5243 36.709 77.8715 43.6074C76.4703 41.9906 74.0989 39.0803 71.5121 36.4934C65.2604 30.2418 57.6076 27.3316 48.7691 28.625C43.4876 29.3795 38.8527 31.8586 38.206 37.7869C37.4515 43.7151 41.763 46.5176 46.5056 48.0266C53.9429 50.3979 61.5957 52.1225 69.1408 54.2782C73.4522 55.4639 77.8715 56.8651 82.0752 58.3741C113.441 69.2606 111.824 101.597 97.5964 118.95C75.3924 145.681 15.8942 138.783 0.265137 106.77C8.02577 101.058 15.8942 95.2371 24.3015 88.9855C26.0261 91.249 27.5351 93.4048 29.2597 95.4527C37.8827 106.339 54.5896 110.974 66.8772 105.046C70.3264 103.321 74.5301 98.6863 74.5301 95.3449C74.6379 92.2191 70.1108 87.4765 66.6617 86.1831C55.3441 81.9794 43.4876 79.2847 32.0622 75.4044C5.11553 66.027 -3.29182 33.4754 16.9721 14.3972C23.4393 8.36115 32.7089 4.15747 41.4396 1.89395C63.967 -3.81874 87.1411 5.01976 100.399 23.4513Z" fill="#38CC78"/>
<path fill-rule="evenodd" clip-rule="evenodd" d="M435.507 28.3019C423.759 56.7575 412.549 84.0275 401.339 111.298C397.135 121.537 392.932 131.885 388.512 142.125C378.057 165.838 355.422 174.784 331.385 164.975C327.074 163.251 325.781 161.203 326.966 156.46C328.799 149.454 329.661 142.232 330.739 135.657C337.529 137.49 343.673 140.184 350.033 140.723C359.949 141.478 362.751 136.843 359.087 127.789C346.799 97.2853 334.511 66.8895 322.224 36.3859C321.254 34.1224 320.607 31.751 319.421 28.3019C330.523 28.3019 354.56 28.1941 354.56 28.1941C354.56 28.1941 360.703 46.0867 361.458 48.1346C367.925 65.1649 368.572 67.644 374.823 84.782C375.686 87.0456 376.656 89.3091 378.273 93.2972C384.416 77.0214 389.914 62.2547 395.518 47.5957C397.89 41.2363 404.141 28.1941 404.141 28.1941C404.141 28.1941 416.752 28.4097 423.543 28.3019C427.1 28.1941 430.657 28.3019 435.507 28.3019Z" fill="#38CC78"/>
<path fill-rule="evenodd" clip-rule="evenodd" d="M657.009 131.453H625.751V123.369C625.751 106.662 625.858 89.9554 625.751 73.2485C625.643 59.883 616.589 53.5236 603.87 57.4039C592.768 60.8531 587.702 67.8592 587.702 79.7157V131.13H556.013V28.7327H587.379C587.594 31.9663 587.702 34.9843 587.918 39.4035C590.397 37.3556 592.229 35.9544 594.061 34.5532C609.152 22.6966 634.05 22.3733 647.308 35.0921C652.374 39.9425 657.009 47.8109 657.332 54.4937C658.518 79.2846 657.763 104.076 657.763 128.866C657.548 129.729 657.224 130.375 657.009 131.453Z" fill="#38CC78"/>
<path fill-rule="evenodd" clip-rule="evenodd" d="M194.928 28.0861V52.7692H161.298C161.298 67.536 160.759 81.3327 161.514 95.1294C161.837 101.812 167.658 104.291 173.801 103.429C178.76 102.782 183.502 100.842 188.784 99.4408C191.263 108.064 193.742 117.01 196.437 126.495C179.945 134.471 163.346 137.166 146.424 130.483C133.166 125.202 129.285 113.345 129.07 100.195C128.747 84.7818 128.962 69.3684 128.962 53.3082H109.129V28.5173H128.854V6.09766H160.759V28.0861H194.928Z" fill="#38CC78"/>
<path fill-rule="evenodd" clip-rule="evenodd" d="M487.245 25.3915C453.508 25.2837 430.01 47.5955 430.01 79.7159C430.01 111.621 453.292 134.795 485.844 134.903C519.689 135.118 543.402 112.483 543.402 79.9315C543.402 48.0267 520.228 25.3915 487.245 25.3915ZM508.91 90.9257C500.503 108.064 483.796 117.226 471.616 111.297C459.436 105.369 456.418 86.6143 464.825 69.3684C473.233 52.2304 489.94 43.0685 502.119 48.9968C514.299 54.925 517.317 73.6799 508.91 90.9257Z" fill="#38CC78"/>
</svg>
