{
    "menu": {
        "resources": "Recursos",
        "partner": "Parceiro",
        "contact": "Contato",
        "download": "Down<br/>load"
    },
    "hero": {
        "title": "Sozinho ou acompanhado, a ideia é se conectar",
        "url": "https://youtu.be/YWvIscmVDBY",
        "speechBalloons": [
            "Lazer ou <br />trabalho?",
            "Gostando <br />do país?",
            "Qual é a <br />melhor <br />Balada?",
            "Qual é <br />a boa?",
            "Qual seu <br />destino?",
            "Primeira <br />vez na <br />cidade?",
            "Procurando <br />experiências?",
            "Onde tem <br/>boa comida?",
            "Onde está <br/>bombando?",
            "Alguém <br/>interessante<br/>ao redor?",
            "Quais os <br/>pontos <br/>turísticos?",
            "Eu gosto <br/>de vinhos. <br/>E você?",
            "Eu gostei <br/>da cidade. <br/>E você?",
            "Onde é o <br/>seu hotel?",
            "Qual a <br/>comida <br/>típica?",
            "Você fala <br/>português?"
        ],
        "btnText": "VEJA O VÍDEO"
    },
    "stayon": {
        "heading1": "Estamos cada vez mais <i>on</i>.",
        "heading2": "Precisamos nos conectar mais com as pessoas.",
        "heading3": "Vamos ficar menos <i>on-line</i> e mais <i>on live</i>."
    },
    "recursos": {
        "title": "Principais recursos",
        "graphs": [{
                "title": "Mapa de calor",
                "desc": "O Stayon mapeia pessoas através do sistema de geolocalização, mostrando em um mapa de calor as áreas e lugares que estão bombando de possibilidades de conexão."
            },
            {
                "title": "Pessoas ao redor",
                "desc": "É possível conferir os usuários que estão em seu raio de distância, o que torna fácil se conectar para explorar o destino de viagem juntos."
            },
            {
                "title": "Nível de afinidade",
                "desc": "Compatibilidade é tudo, né? Aqui você consegue analisar o seu grau de afinidade com os outras pessoas antes de marcar um encontro."
            },
            {
                "title": "Chat",
                "desc": "Bateu afinidade? Converse com outras pessas através do chat, marque programações e compartilhe momentos em grupo."
            },
            {
                "title": "Ofertas ao redor",
                "desc": "Quem se junta, ganha. E ganha muito. Aqui você pode conferir estabelecimentos ou serviços com ofertas exclusivas para o Stayon. Se conecte, convide e aproveite."
            }
        ]
    },
    "download": {
        "title": "Download <br>gratuito",
        "androidLink": "#",
        "iphoneLink": "#"
    },
    "parceria": {
        "title": "Seja um Parceiro",
        "desc": "O Stayon também conecta pessoas com oportunidades de produtos e serviços. Os seus podem ser o que elas estão procurando! Baixe o folheto e torne-se um parceiro Stayon.",
        "folhetoDownloadLink": "./stayon-folheto-parceiro.pdf"
    },
    "contato": {
        "title": "Fale com a gente",
        "sendBtn": "ENVIAR",
        "formName": "Seu nome",
        "formPhone": "Telefone (com DDD)",
        "formEmail": "Seu e-mail",
        "formBody": "O que me conta?",
        "sentMessage": "Sua mensagem chegou! Responderemos o mais rápido possível."
    },

    "socials": {
        "instagram": "https://www.instagram.com/stayontecnologia/",
        "linkedin": "https://linkedin.com/company/stayon-tecnologia",
        "facebook": "https://www.facebook.com/stayon.joaopessoa"
    },
    "legal":{
        "copyright": "© 2020 Stayon - Todos os direitos reservados",
        "termsBtn": "Termos de uso",
        "policyBtn": "Política de Privacidade",
        "terms": "http://server.stayon.network/legal/en/tems",
        "policy": "http://server.stayon.network/legal/en/privacy-policy",
        "termsContent": "<h1>Políticas de Privacidade</h1> <p> Lorem ipsum dolor sit amet consectetur adipisicing elit. Distinctio quis a quam praesentium, soluta quasi. Tempore quia illo voluptatem suscipit tenetur corporis deleniti voluptate! Aliquid ut dicta doloribus aliquam natus. </p> <p> Lorem ipsum dolor sit amet consectetur adipisicing elit. Distinctio quis a quam praesentium, soluta quasi. Tempore quia illo voluptatem suscipit tenetur corporis deleniti voluptate! Aliquid ut dicta doloribus aliquam natus. </p> <p> Lorem ipsum dolor sit amet consectetur adipisicing elit. Distinctio quis a quam praesentium, soluta quasi. Tempore quia illo voluptatem suscipit tenetur corporis deleniti voluptate! Aliquid ut dicta doloribus aliquam </p> <p> Lorem ipsum dolor sit amet consectetur adipisicing elit. Distinctio quis a quam praesentium, soluta quasi. Tempore quia illo voluptatem suscipit tenetur corporis deleniti voluptate! Aliquid ut dicta doloribus aliquam natus. Lorem ipsum dolor sit amet consectetur adipisicing elit. Distinctio quis a quam praesentium, soluta quasi. Tempore quia illo voluptatem suscipit tenetur corporis deleniti voluptate! Aliquid ut dicta doloribus aliquam natus. Lorem ipsum dolor sit amet consectetur adipisicing elit. Distinctio quis a quam praesentium, soluta quasi. Tempore quia illo voluptatem suscipit tenetur corporis deleniti voluptate! Aliquid ut dicta doloribus aliquam natus. Lorem ipsum dolor sit amet consectetur adipisicing elit. Distinctio quis a quam praesentium, soluta quasi. Tempore quia illo voluptatem suscipit tenetur corporis deleniti voluptate! Aliquid ut dicta doloribus aliquam </p> <p> Lorem ipsum dolor sit amet consectetur adipisicing elit. Distinctio quis a quam praesentium, soluta quasi. Tempore quia illo voluptatem suscipit tenetur corporis deleniti voluptate! Aliquid ut dicta doloribus aliquam </p> <p> Lorem ipsum dolor sit amet consectetur adipisicing elit. Distinctio quis a quam praesentium, soluta quasi. Tempore quia illo voluptatem suscipit tenetur corporis deleniti voluptate! Aliquid ut dicta doloribus aliquam </p> <p> Lorem ipsum dolor sit amet consectetur adipisicing elit. Distinctio quis a quam praesentium, soluta quasi. Tempore quia illo voluptatem suscipit tenetur corporis deleniti voluptate! Aliquid ut dicta doloribus aliquam </p> <p> Lorem ipsum dolor sit amet consectetur adipisicing elit. Distinctio quis a quam praesentium, soluta quasi. Tempore quia illo voluptatem suscipit tenetur corporis deleniti voluptate! Aliquid ut dicta doloribus aliquam natus. Lorem ipsum dolor sit amet consectetur adipisicing elit. Distinctio quis a quam praesentium, soluta quasi. Tempore quia illo voluptatem suscipit tenetur corporis deleniti voluptate! Aliquid ut dicta doloribus aliquam natus. Lorem ipsum dolor sit amet consectetur adipisicing elit. Distinctio quis a quam praesentium, soluta quasi. Tempore quia illo voluptatem suscipit tenetur corporis deleniti voluptate! Aliquid ut dicta doloribus aliquam natus. Lorem ipsum dolor sit amet consectetur adipisicing elit. Distinctio quis a quam praesentium, soluta quasi. Tempore quia illo voluptatem suscipit tenetur corporis deleniti voluptate! Aliquid ut dicta doloribus aliquam natus.</p>"
    }

}